PA 8: COVID-19 Infections and California
…
We want to create a graph that plots the number of cases per month in California. We want the x-axis of the plot to have the month/year (e.g. March 2021), and the number of cases on the y-axis. The months/years should be in order chronologically.

Below is some code that can help you get started with the process of working with the data. Use the functions from lubridate to help you extract out the right information. You will also use functions learned from other packages such as dplyr.

cases |> 
  filter(state == "California") |> 
  mutate(date = date(date),
         month = month(date, label = , abbr = ),
         year = year(date)) |> 
  unite(date, month, year, sep = "/") |>
  group_by(date) %>% 
  summarise(sum = sum(cases_daily)) 

# A tibble: 39 × 2
   date        sum
   <chr>     <dbl>
 1 1/2020        3
 2 1/2021  1016204
 3 1/2022  2896206
 4 1/2023   156773
 5 10/2020  114136
 6 10/2021  178637
 7 10/2022  101081
 8 11/2020  301976
 9 11/2021  167794
10 11/2022  137730
# ℹ 29 more rows
…
casesThree = filter(cases, year(date) == "2021") |>
  filter(state == "California" | state == "Oregon" | state == "Washington") |>
  mutate(month = month(date)) |>
  group_by(state, month) |>
  summarise(deathProp = sum(deaths_daily) / sum(cases_daily))

casesThree$deathProp = casesThree$deathProp * 100

casesCali = filter(casesThree, state == "California")
casesOre = filter(casesThree, state == "Oregon") 
casesWash = filter(casesThree, state == "Washington") 

print(casesThree)

# A tibble: 36 × 3
# Groups:   state [3]
   state      month deathProp
   <chr>      <dbl>     <dbl>
 1 California     1     1.47 
 2 California     2     4.60 
 3 California     3     7.08 
 4 California     4     3.41 
 5 California     5     3.13 
 6 California     6     1.54 
 7 California     7     0.342
 8 California     8     0.351
 9 California     9     1.18 
10 California    10     1.60 
# ℹ 26 more rows
…
